<?xml version="1.0" encoding="UTF-8"?>
<svg width="24px" height="24px" viewBox="0 0 24 24" version="1.1" xmlns="http://www.w3.org/2000/svg" xmlns:xlink="http://www.w3.org/1999/xlink">
    <!-- Generator: Sketch 50.2 (55047) - http://www.bohemiancoding.com/sketch -->
    <title>iconografia/Solid/search</title>
    <desc>Created with Sketch.</desc>
    <defs>
        <path d="M23.6491228,20.7111111 L18.9847953,16.0467836 C18.774269,15.8362573 18.4888889,15.7192982 18.1894737,15.7192982 L17.4269006,15.7192982 C18.7181287,14.0678363 19.4853801,11.9906433 19.4853801,9.73099415 C19.4853801,4.35555556 15.1298246,0 9.75438596,0 C4.37894737,0 0.0233918129,4.35555556 0.0233918129,9.73099415 C0.0233918129,15.1064327 4.37894737,19.4619883 9.75438596,19.4619883 C12.0140351,19.4619883 14.0912281,18.6947368 15.7426901,17.4035088 L15.7426901,18.1660819 C15.7426901,18.4654971 15.8596491,18.7508772 16.0701754,18.9614035 L20.7345029,23.625731 C21.174269,24.0654971 21.8853801,24.0654971 22.3204678,23.625731 L23.6444444,22.3017544 C24.0842105,21.8619883 24.0842105,21.1508772 23.6491228,20.7111111 Z M9.75438596,15.7192982 C6.44678363,15.7192982 3.76608187,13.0432749 3.76608187,9.73099415 C3.76608187,6.42339181 6.44210526,3.74269006 9.75438596,3.74269006 C13.0619883,3.74269006 15.7426901,6.41871345 15.7426901,9.73099415 C15.7426901,13.0385965 13.0666667,15.7192982 9.75438596,15.7192982 Z" id="path-1"></path>
    </defs>
    <g id="iconografia/Solid/search" stroke="none" stroke-width="1" fill="none" fill-rule="evenodd">
        <mask id="mask-2" fill="white">
            <use xlink:href="#path-1"></use>
        </mask>
        <g id="Mask"></g>
        <g id="colores/iconos/gris" mask="url(#mask-2)" fill="#454648">
            <rect x="0" y="0" width="24" height="24"></rect>
        </g>
    </g>
</svg>